…
#### Load the packages

``` r
suppressPackageStartupMessages(library(dplyr))
library(gapminder)
```

#### Exploring the Gapminder data frame

``` r
gapminder
```

    ## # A tibble: 1,704 × 6
    ##        country continent  year lifeExp      pop gdpPercap
    ##         <fctr>    <fctr> <int>   <dbl>    <int>     <dbl>
    ## 1  Afghanistan      Asia  1952  28.801  8425333  779.4453
    ## 2  Afghanistan      Asia  1957  30.332  9240934  820.8530
    ## 3  Afghanistan      Asia  1962  31.997 10267083  853.1007
    ## 4  Afghanistan      Asia  1967  34.020 11537966  836.1971
    ## 5  Afghanistan      Asia  1972  36.088 13079460  739.9811
    ## 6  Afghanistan      Asia  1977  38.438 14880372  786.1134
    ## 7  Afghanistan      Asia  1982  39.854 12881816  978.0114
    ## 8  Afghanistan      Asia  1987  40.822 13867957  852.3959
    ## 9  Afghanistan      Asia  1992  41.674 16317921  649.3414
    ## 10 Afghanistan      Asia  1997  41.763 22227415  635.3414
    ## # ... with 1,694 more rows
…
``` r
filter(gapminder, year > 2000)
```

    ## # A tibble: 284 × 6
    ##        country continent  year lifeExp      pop  gdpPercap
    ##         <fctr>    <fctr> <int>   <dbl>    <int>      <dbl>
    ## 1  Afghanistan      Asia  2002  42.129 25268405   726.7341
    ## 2  Afghanistan      Asia  2007  43.828 31889923   974.5803
    ## 3      Albania    Europe  2002  75.651  3508512  4604.2117
    ## 4      Albania    Europe  2007  76.423  3600523  5937.0295
    ## 5      Algeria    Africa  2002  70.994 31287142  5288.0404
    ## 6      Algeria    Africa  2007  72.301 33333216  6223.3675
    ## 7       Angola    Africa  2002  41.003 10866106  2773.2873
    ## 8       Angola    Africa  2007  42.731 12420476  4797.2313
    ## 9    Argentina  Americas  2002  74.340 38331121  8797.6407
    ## 10   Argentina  Americas  2007  75.320 40301927 12779.3796
    ## # ... with 274 more rows

``` r
filter(gapminder, continent == "Europe", year == 2007)
```

    ## # A tibble: 30 × 6
    ##                   country continent  year lifeExp      pop gdpPercap
    ##                    <fctr>    <fctr> <int>   <dbl>    <int>     <dbl>
    ## 1                 Albania    Europe  2007  76.423  3600523  5937.030
    ## 2                 Austria    Europe  2007  79.829  8199783 36126.493
    ## 3                 Belgium    Europe  2007  79.441 10392226 33692.605
    ## 4  Bosnia and Herzegovina    Europe  2007  74.852  4552198  7446.299
    ## 5                Bulgaria    Europe  2007  73.005  7322858 10680.793
    ## 6                 Croatia    Europe  2007  75.748  4493312 14619.223
    ## 7          Czech Republic    Europe  2007  76.486 10228744 22833.309
    ## 8                 Denmark    Europe  2007  78.332  5468120 35278.419
    ## 9                 Finland    Europe  2007  79.313  5238460 33207.084
    ## 10                 France    Europe  2007  80.657 61083916 30470.017
    ## # ... with 20 more rows

``` r
filter(gapminder, country == "Bulgaria" | year == 2007)
```

    ## # A tibble: 153 × 6
    ##        country continent  year lifeExp       pop  gdpPercap
    ##         <fctr>    <fctr> <int>   <dbl>     <int>      <dbl>
    ## 1  Afghanistan      Asia  2007  43.828  31889923   974.5803
    ## 2      Albania    Europe  2007  76.423   3600523  5937.0295
    ## 3      Algeria    Africa  2007  72.301  33333216  6223.3675
    ## 4       Angola    Africa  2007  42.731  12420476  4797.2313
    ## 5    Argentina  Americas  2007  75.320  40301927 12779.3796
    ## 6    Australia   Oceania  2007  81.235  20434176 34435.3674
    ## 7      Austria    Europe  2007  79.829   8199783 36126.4927
    ## 8      Bahrain      Asia  2007  75.635    708573 29796.0483
    ## 9   Bangladesh      Asia  2007  64.062 150448339  1391.2538
    ## 10     Belgium    Europe  2007  79.441  10392226 33692.6051
    ## # ... with 143 more rows

``` r
filter(gapminder, country == "Bulgaria" | country == "Albania")
```

    ## # A tibble: 24 × 6
    ##    country continent  year lifeExp     pop gdpPercap
    ##     <fctr>    <fctr> <int>   <dbl>   <int>     <dbl>
    ## 1  Albania    Europe  1952  55.230 1282697  1601.056
    ## 2  Albania    Europe  1957  59.280 1476505  1942.284
    ## 3  Albania    Europe  1962  64.820 1728137  2312.889
    ## 4  Albania    Europe  1967  66.220 1984060  2760.197
    ## 5  Albania    Europe  1972  67.690 2263554  3313.422
    ## 6  Albania    Europe  1977  68.930 2509048  3533.004
    ## 7  Albania    Europe  1982  70.420 2780097  3630.881
    ## 8  Albania    Europe  1987  72.000 3075321  3738.933
    ## 9  Albania    Europe  1992  71.581 3326498  2497.438
    ## 10 Albania    Europe  1997  72.950 3428038  3193.055
    ## # ... with 14 more rows

``` r
filter(gapminder, country %in% c("Bulgaria", "Albania"))
```

    ## # A tibble: 24 × 6
    ##    country continent  year lifeExp     pop gdpPercap
    ##     <fctr>    <fctr> <int>   <dbl>   <int>     <dbl>
    ## 1  Albania    Europe  1952  55.230 1282697  1601.056
    ## 2  Albania    Europe  1957  59.280 1476505  1942.284
    ## 3  Albania    Europe  1962  64.820 1728137  2312.889
    ## 4  Albania    Europe  1967  66.220 1984060  2760.197
    ## 5  Albania    Europe  1972  67.690 2263554  3313.422
    ## 6  Albania    Europe  1977  68.930 2509048  3533.004
    ## 7  Albania    Europe  1982  70.420 2780097  3630.881
    ## 8  Albania    Europe  1987  72.000 3075321  3738.933
    ## 9  Albania    Europe  1992  71.581 3326498  2497.438
    ## 10 Albania    Europe  1997  72.950 3428038  3193.055
    ## # ... with 14 more rows

``` r
select(gapminder, year, lifeExp)
```

    ## # A tibble: 1,704 × 2
    ##     year lifeExp
    ##    <int>   <dbl>
    ## 1   1952  28.801
    ## 2   1957  30.332
    ## 3   1962  31.997
    ## 4   1967  34.020
    ## 5   1972  36.088
    ## 6   1977  38.438
    ## 7   1982  39.854
    ## 8   1987  40.822
    ## 9   1992  41.674
    ## 10  1997  41.763
    ## # ... with 1,694 more rows
…
``` r
gapminder[c("year" , "country")]
```

    ## # A tibble: 1,704 × 2
    ##     year     country
    ##    <int>      <fctr>
    ## 1   1952 Afghanistan
    ## 2   1957 Afghanistan
    ## 3   1962 Afghanistan
    ## 4   1967 Afghanistan
    ## 5   1972 Afghanistan
    ## 6   1977 Afghanistan
    ## 7   1982 Afghanistan
    ## 8   1987 Afghanistan
    ## 9   1992 Afghanistan
    ## 10  1997 Afghanistan
    ## # ... with 1,694 more rows
…
