…
Working with a nested data frame
--------------------------------

``` r
( nested_gap <- gapminder %>% 
    group_by( continent , country ) %>% 
    nest( ) )
```

    ## # A tibble: 142 × 3
    ##    continent     country              data
    ##       <fctr>      <fctr>            <list>
    ## 1       Asia Afghanistan <tibble [12 × 4]>
    ## 2     Europe     Albania <tibble [12 × 4]>
    ## 3     Africa     Algeria <tibble [12 × 4]>
    ## 4     Africa      Angola <tibble [12 × 4]>
    ## 5   Americas   Argentina <tibble [12 × 4]>
    ## 6    Oceania   Australia <tibble [12 × 4]>
    ## 7     Europe     Austria <tibble [12 × 4]>
    ## 8       Asia     Bahrain <tibble [12 × 4]>
    ## 9       Asia  Bangladesh <tibble [12 × 4]>
    ## 10    Europe     Belgium <tibble [12 × 4]>
    ## # ... with 132 more rows
…
``` r
le_lin_fit_broom <- gapminder %>% 
  group_by( continent , country ) %>% 
  do( fit = lm( lifeExp ~ I( year - 1952 ) , . ) )

le_lin_fit_broom %>% 
  tidy( fit )
```

    ## Source: local data frame [284 x 7]
    ## Groups: continent, country [142]
    ## 
    ##    continent      country           term    estimate  std.error  statistic
    ##       <fctr>       <fctr>          <chr>       <dbl>      <dbl>      <dbl>
    ## 1     Africa      Algeria    (Intercept) 43.37497436 0.71842024 60.3754908
    ## 2     Africa      Algeria I(year - 1952)  0.56927972 0.02212707 25.7277493
    ## 3     Africa       Angola    (Intercept) 32.12665385 0.76403549 42.0486406
    ## 4     Africa       Angola I(year - 1952)  0.20933986 0.02353200  8.8959644
    ## 5     Africa        Benin    (Intercept) 39.58851282 0.63788186 62.0624528
    ## 6     Africa        Benin I(year - 1952)  0.33423287 0.01964652 17.0123200
    ## 7     Africa     Botswana    (Intercept) 52.92911538 3.31904058 15.9471131
    ## 8     Africa     Botswana I(year - 1952)  0.06066853 0.10222519  0.5934793
    ## 9     Africa Burkina Faso    (Intercept) 34.68469231 1.11161365 31.2021109
    ## 10    Africa Burkina Faso I(year - 1952)  0.36397483 0.03423728 10.6309510
    ## # ... with 274 more rows, and 1 more variables: p.value <dbl>
…
``` r
le_rob_fit_broom <- gapminder %>% 
  group_by( continent , country ) %>% 
  do( fit = rlm( lifeExp ~ I( year - 1952 ) , . ) )

le_rob_fit_broom %>% 
  tidy( fit )
```

    ## Source: local data frame [284 x 6]
    ## Groups: continent, country [142]
    ## 
    ##    continent      country           term    estimate  std.error  statistic
    ##       <fctr>       <fctr>          <chr>       <dbl>      <dbl>      <dbl>
    ## 1     Africa      Algeria    (Intercept) 43.15800264 0.60099398 71.8110394
    ## 2     Africa      Algeria I(year - 1952)  0.57583135 0.01851039 31.1085536
    ## 3     Africa       Angola    (Intercept) 32.13492594 0.94094528 34.1517479
    ## 4     Africa       Angola I(year - 1952)  0.20903132 0.02898076  7.2127625
    ## 5     Africa        Benin    (Intercept) 39.58851282 0.63788186 62.0624528
    ## 6     Africa        Benin I(year - 1952)  0.33423287 0.01964652 17.0123200
    ## 7     Africa     Botswana    (Intercept) 52.92911538 3.31904058 15.9471131
    ## 8     Africa     Botswana I(year - 1952)  0.06066853 0.10222519  0.5934793
    ## 9     Africa Burkina Faso    (Intercept) 34.68469231 1.11161365 31.2021109
    ## 10    Africa Burkina Faso I(year - 1952)  0.36397483 0.03423728 10.6309510
    ## # ... with 274 more rows
…
``` r
le_quad_fit_broom <- gapminder %>% 
  group_by( continent , country ) %>% 
  do( fit = rlm( lifeExp ~ I( year - 1952 ) + I( ( year - 1952 )^2 ) , . ) )

le_quad_fit_broom %>% 
  tidy( fit )
```

    ## Source: local data frame [426 x 6]
    ## Groups: continent, country [142]
    ## 
    ##    continent  country               term     estimate    std.error
    ##       <fctr>   <fctr>              <chr>        <dbl>        <dbl>
    ## 1     Africa  Algeria        (Intercept) 41.951551299 0.8291322824
    ## 2     Africa  Algeria     I(year - 1952)  0.739640586 0.0700840706
    ## 3     Africa  Algeria I((year - 1952)^2) -0.003100787 0.0012277828
    ## 4     Africa   Angola        (Intercept) 30.043042009 0.4447693000
    ## 5     Africa   Angola     I(year - 1952)  0.464016821 0.0375950179
    ## 6     Africa   Angola I((year - 1952)^2) -0.004714918 0.0006586164
    ## 7     Africa    Benin        (Intercept) 37.891662339 0.2193079128
    ## 8     Africa    Benin     I(year - 1952)  0.532687034 0.0185374416
    ## 9     Africa    Benin I((year - 1952)^2) -0.003481666 0.0003247522
    ## 10    Africa Botswana        (Intercept) 44.935569344 2.8656565176
    ## # ... with 416 more rows, and 1 more variables: statistic <dbl>
…
