…
### Activity \#2

#### Life expectancy for different countries by year

``` r
# filtering down to 5 countries to make life easier
different_countries <- gapminder %>% 
  select( year , country , lifeExp ) %>% 
  filter( country %in% c( "India" , "Canada" , "United States" , "China" , "Japan" ) ) %>% 
  print( n = 10 )
```

    ## # A tibble: 60 × 3
    ##     year country lifeExp
    ##    <int>  <fctr>   <dbl>
    ## 1   1952  Canada   68.75
    ## 2   1957  Canada   69.96
    ## 3   1962  Canada   71.30
    ## 4   1967  Canada   72.13
    ## 5   1972  Canada   72.88
    ## 6   1977  Canada   74.21
    ## 7   1982  Canada   75.76
    ## 8   1987  Canada   76.86
    ## 9   1992  Canada   77.95
    ## 10  1997  Canada   78.61
    ## # ... with 50 more rows
…
### Activity \#3

#### Mean life expectancy for all years by continent

``` r
# mean life expectancy for each continent by year
all_continents <- gapminder %>% 
  select( continent , year , lifeExp ) %>% 
  group_by( year , continent ) %>% 
  summarise( mean_lifeExp = mean( lifeExp ) ) %>% 
  arrange( continent ) %>% 
  print( n = 10 )
```

    ## Source: local data frame [60 x 3]
    ## Groups: year [12]
    ## 
    ##     year continent mean_lifeExp
    ##    <int>    <fctr>        <dbl>
    ## 1   1952    Africa     39.13550
    ## 2   1957    Africa     41.26635
    ## 3   1962    Africa     43.31944
    ## 4   1967    Africa     45.33454
    ## 5   1972    Africa     47.45094
    ## 6   1977    Africa     49.58042
    ## 7   1982    Africa     51.59287
    ## 8   1987    Africa     53.34479
    ## 9   1992    Africa     53.62958
    ## 10  1997    Africa     53.59827
    ## # ... with 50 more rows
…
#### Continents having lowest and highest life expectancy by year

``` r
# the tibble referred-to by Jenny, modified to give continent with 
# lowest and highest life expectancy by year
min_max_le <- gapminder %>%
  select( year , continent , lifeExp ) %>%
  group_by( year ) %>%
  filter( min_rank( desc( lifeExp) ) == 1 | min_rank( lifeExp ) == 1 ) %>% 
  arrange( year ) %>% 
  print( n = 10 )
```

    ## Source: local data frame [24 x 3]
    ## Groups: year [12]
    ## 
    ##     year continent lifeExp
    ##    <int>    <fctr>   <dbl>
    ## 1   1952      Asia  28.801
    ## 2   1952    Europe  72.670
    ## 3   1957      Asia  30.332
    ## 4   1957    Europe  73.470
    ## 5   1962      Asia  31.997
    ## 6   1962    Europe  73.680
    ## 7   1967      Asia  34.020
    ## 8   1967    Europe  74.160
    ## 9   1972    Africa  35.400
    ## 10  1972    Europe  74.720
    ## # ... with 14 more rows
…
