…
dplyr single table verbs
------------------------

working through this material.

<http://stat545.com/block010_dplyr-end-single-table.html>

``` r
(my_gap <-  gapminder)
```

    ## # A tibble: 1,704 × 6
    ##        country continent  year lifeExp      pop gdpPercap
    ##         <fctr>    <fctr> <int>   <dbl>    <int>     <dbl>
    ## 1  Afghanistan      Asia  1952  28.801  8425333  779.4453
    ## 2  Afghanistan      Asia  1957  30.332  9240934  820.8530
    ## 3  Afghanistan      Asia  1962  31.997 10267083  853.1007
    ## 4  Afghanistan      Asia  1967  34.020 11537966  836.1971
    ## 5  Afghanistan      Asia  1972  36.088 13079460  739.9811
    ## 6  Afghanistan      Asia  1977  38.438 14880372  786.1134
    ## 7  Afghanistan      Asia  1982  39.854 12881816  978.0114
    ## 8  Afghanistan      Asia  1987  40.822 13867957  852.3959
    ## 9  Afghanistan      Asia  1992  41.674 16317921  649.3414
    ## 10 Afghanistan      Asia  1997  41.763 22227415  635.3414
    ## # ... with 1,694 more rows
…
``` r
my_gap %>% 
  print(n = 20)
```

    ## # A tibble: 1,704 × 7
    ##    gdpPercapRel     country continent  year lifeExp      pop gdpPercap
    ##           <dbl>      <fctr>    <fctr> <int>   <dbl>    <int>     <dbl>
    ## 1    0.06856992 Afghanistan      Asia  1952  28.801  8425333  779.4453
    ## 2    0.06572108 Afghanistan      Asia  1957  30.332  9240934  820.8530
    ## 3    0.06336874 Afghanistan      Asia  1962  31.997 10267083  853.1007
    ## 4    0.05201335 Afghanistan      Asia  1967  34.020 11537966  836.1971
    ## 5    0.03900679 Afghanistan      Asia  1972  36.088 13079460  739.9811
    ## 6    0.03558542 Afghanistan      Asia  1977  38.438 14880372  786.1134
    ## 7    0.04271018 Afghanistan      Asia  1982  39.854 12881816  978.0114
    ## 8    0.03201305 Afghanistan      Asia  1987  40.822 13867957  852.3959
    ## 9    0.02464959 Afghanistan      Asia  1992  41.674 16317921  649.3414
    ## 10   0.02194243 Afghanistan      Asia  1997  41.763 22227415  635.3414
    ## 11   0.02180488 Afghanistan      Asia  2002  42.129 25268405  726.7341
    ## 12   0.02683372 Afghanistan      Asia  2007  43.828 31889923  974.5803
    ## 13   0.14084925     Albania    Europe  1952  55.230  1282697 1601.0561
    ## 14   0.15550777     Albania    Europe  1957  59.280  1476505 1942.2842
    ## 15   0.17180252     Albania    Europe  1962  64.820  1728137 2312.8890
    ## 16   0.17169047     Albania    Europe  1967  66.220  1984060 2760.1969
    ## 17   0.17466117     Albania    Europe  1972  67.690  2263554 3313.4222
    ## 18   0.15993041     Albania    Europe  1977  68.930  2509048 3533.0039
    ## 19   0.15856211     Albania    Europe  1982  70.420  2780097 3630.8807
    ## 20   0.14042141     Albania    Europe  1987  72.000  3075321 3738.9327
    ## # ... with 1,684 more rows
``` r
summary(my_gap$gdpPercapRel)
```

    ##     Min.  1st Qu.   Median     Mean  3rd Qu.     Max. 
    ## 0.007236 0.061650 0.171500 0.326700 0.446600 9.535000

``` r
## arrange()

my_gap %>% 
  arrange(year, country)
```

    ## # A tibble: 1,704 × 7
    ##    gdpPercapRel     country continent  year lifeExp      pop  gdpPercap
    ##           <dbl>      <fctr>    <fctr> <int>   <dbl>    <int>      <dbl>
    ## 1    0.06856992 Afghanistan      Asia  1952  28.801  8425333   779.4453
    ## 2    0.14084925     Albania    Europe  1952  55.230  1282697  1601.0561
    ## 3    0.21544589     Algeria    Africa  1952  43.077  9279525  2449.0082
    ## 4    0.30971764      Angola    Africa  1952  30.015  4232095  3520.6103
    ## 5    0.52003442   Argentina  Americas  1952  62.485 17876956  5911.3151
    ## 6    0.88321046   Australia   Oceania  1952  69.120  8691212 10039.5956
    ## 7    0.53989527     Austria    Europe  1952  66.800  6927772  6137.0765
    ## 8    0.86803421     Bahrain      Asia  1952  50.939   120447  9867.0848
    ## 9    0.06019482  Bangladesh      Asia  1952  37.484 46886859   684.2442
    ## 10   0.73396559     Belgium    Europe  1952  68.000  8730405  8343.1051
    ## # ... with 1,694 more rows

``` r
my_gap %>% 
  filter(year == 2007) %>% 
  arrange(desc(lifeExp))
```

    ## # A tibble: 142 × 7
    ##    gdpPercapRel          country continent  year lifeExp       pop
    ##           <dbl>           <fctr>    <fctr> <int>   <dbl>     <int>
    ## 1     0.8716061            Japan      Asia  2007  82.603 127467972
    ## 2     1.0937725 Hong Kong, China      Asia  2007  82.208   6980412
    ## 3     0.9961881          Iceland    Europe  2007  81.757    301931
    ## 4     1.0326875      Switzerland    Europe  2007  81.701   7554661
    ## 5     0.9481303        Australia   Oceania  2007  81.235  20434176
    ## 6     0.7935482            Spain    Europe  2007  80.941  40448191
    ## 7     0.9322814           Sweden    Europe  2007  80.884   9031088
    ## 8     0.7027482           Israel      Asia  2007  80.745   6426679
    ## 9     0.8389498           France    Europe  2007  80.657  61083916
    ## 10    1.0000000           Canada  Americas  2007  80.653  33390141
    ## # ... with 132 more rows, and 1 more variables: gdpPercap <dbl>

``` r
## rename()

my_gap %>% 
  rename(life_exp = lifeExp,
         gdp_perca = gdpPercap,
         gdp_percap_rel = gdpPercapRel)
```

    ## # A tibble: 1,704 × 7
    ##    gdp_percap_rel     country continent  year life_exp      pop gdp_perca
    ##             <dbl>      <fctr>    <fctr> <int>    <dbl>    <int>     <dbl>
    ## 1      0.06856992 Afghanistan      Asia  1952   28.801  8425333  779.4453
    ## 2      0.06572108 Afghanistan      Asia  1957   30.332  9240934  820.8530
    ## 3      0.06336874 Afghanistan      Asia  1962   31.997 10267083  853.1007
    ## 4      0.05201335 Afghanistan      Asia  1967   34.020 11537966  836.1971
    ## 5      0.03900679 Afghanistan      Asia  1972   36.088 13079460  739.9811
    ## 6      0.03558542 Afghanistan      Asia  1977   38.438 14880372  786.1134
    ## 7      0.04271018 Afghanistan      Asia  1982   39.854 12881816  978.0114
    ## 8      0.03201305 Afghanistan      Asia  1987   40.822 13867957  852.3959
    ## 9      0.02464959 Afghanistan      Asia  1992   41.674 16317921  649.3414
    ## 10     0.02194243 Afghanistan      Asia  1997   41.763 22227415  635.3414
    ## # ... with 1,694 more rows

``` r
my_gap %>% 
  print(n = 20)
```

    ## # A tibble: 1,704 × 7
    ##    gdpPercapRel     country continent  year lifeExp      pop gdpPercap
    ##           <dbl>      <fctr>    <fctr> <int>   <dbl>    <int>     <dbl>
    ## 1    0.06856992 Afghanistan      Asia  1952  28.801  8425333  779.4453
    ## 2    0.06572108 Afghanistan      Asia  1957  30.332  9240934  820.8530
    ## 3    0.06336874 Afghanistan      Asia  1962  31.997 10267083  853.1007
    ## 4    0.05201335 Afghanistan      Asia  1967  34.020 11537966  836.1971
    ## 5    0.03900679 Afghanistan      Asia  1972  36.088 13079460  739.9811
    ## 6    0.03558542 Afghanistan      Asia  1977  38.438 14880372  786.1134
    ## 7    0.04271018 Afghanistan      Asia  1982  39.854 12881816  978.0114
    ## 8    0.03201305 Afghanistan      Asia  1987  40.822 13867957  852.3959
    ## 9    0.02464959 Afghanistan      Asia  1992  41.674 16317921  649.3414
    ## 10   0.02194243 Afghanistan      Asia  1997  41.763 22227415  635.3414
    ## 11   0.02180488 Afghanistan      Asia  2002  42.129 25268405  726.7341
    ## 12   0.02683372 Afghanistan      Asia  2007  43.828 31889923  974.5803
    ## 13   0.14084925     Albania    Europe  1952  55.230  1282697 1601.0561
    ## 14   0.15550777     Albania    Europe  1957  59.280  1476505 1942.2842
    ## 15   0.17180252     Albania    Europe  1962  64.820  1728137 2312.8890
    ## 16   0.17169047     Albania    Europe  1967  66.220  1984060 2760.1969
    ## 17   0.17466117     Albania    Europe  1972  67.690  2263554 3313.4222
    ## 18   0.15993041     Albania    Europe  1977  68.930  2509048 3533.0039
    ## 19   0.15856211     Albania    Europe  1982  70.420  2780097 3630.8807
    ## 20   0.14042141     Albania    Europe  1987  72.000  3075321 3738.9327
    ## # ... with 1,684 more rows
…
